{
  "cities": [
    { "id": 100002, "city": "Crossing Republic", "active": true},
    { "id": 100001, "city": "Greater Noida (W)", "active": true },
    { "id": 100003, "city": "Noida", "active": true}
  ],
  "projects": [
    {
      "id": 200001,
      "cityCode": "100001",
      "active": true,
      "projectName": "Ska Green Mansion",
      "towers": [
        {"id": 300001, "towerName": "Tower-A", "active": true},
        {"id": 300002, "towerName": "Tower-B", "active": true}
      ]
    },
    {
      "id": 200002,
      "cityCode": "100001",
      "active": true,
      "projectName": "Shri Radha Sky Gardens",
      "towers": [
        {"id": 300003, "towerName": "Tower-1", "active": true},
        {"id": 300004, "towerName": "Tower-2", "active": true},
        {"id": 300005, "towerName": "Tower-3", "active": true},
        {"id": 300006, "towerName": "Tower-4", "active": true},
        {"id": 300007, "towerName": "Tower-5", "active": true},
        {"id": 300008, "towerName": "Tower-6", "active": true},
        {"id": 300009, "towerName": "Tower-7", "active": true},
        {"id": 300010, "towerName": "Tower-8", "active": true},
        {"id": 300011, "towerName": "Tower-9", "active": true},
        {"id": 300012, "towerName": "Tower-10", "active": true},
        {"id": 300013, "towerName": "Tower-11", "active": true},
        {"id": 300014, "towerName": "Tower-12", "active": true},

        {"id": 300015, "towerName": "Tower-14", "active": true},
        {"id": 300016, "towerName": "Tower-15", "active": true},
        {"id": 300017, "towerName": "Tower-16", "active": true},
        {"id": 300018, "towerName": "Tower-17", "active": true},
        {"id": 300019, "towerName": "Tower-18", "active": true},
        {"id": 300020, "towerName": "Tower-19", "active": true},
        {"id": 300021, "towerName": "Tower-20", "active": true}
      ]
    },
    {
      "id": 200003,
      "cityCode": "100001",
      "active": true,
      "projectName": "Green Arch",
      "towers": [
        {"id": 300022, "towerName": "Tower-A", "active": true},
        {"id": 300023, "towerName": "Tower-B", "active": true},
        {"id": 300024, "towerName": "Tower-C", "active": true},
        {"id": 300025, "towerName": "Tower-D", "active": true},
        {"id": 300026, "towerName": "Tower-E", "active": true},
        {"id": 300027, "towerName": "Tower-J", "active": true},
        {"id": 300028, "towerName": "Tower-K", "active": true}
      ]
    },
    {
      "id": 200004,
      "cityCode": "100001",
      "active": true,
      "projectName": "Gaur Saundaryam",
      "towers": [
        {"id": 300029, "towerName": "Carnation", "active": true},
        {"id": 300030, "towerName": "Hanna", "active": true},
        {"id": 300031, "towerName": "Sharon", "active": true},
        {"id": 300032, "towerName": "Zinnia", "active": true},
        {"id": 300033, "towerName": "Bluebell", "active": true},
        {"id": 300034, "towerName": "Magnolia", "active": true},
        {"id": 300035, "towerName": "Wisteria", "active": true}
      ]
    },
    {
      "id": 200005,
      "cityCode": "100001",
      "active": true,
      "projectName": "Panchsheel Greens",
      "towers": [
        {"id": 300036, "towerName": "A1", "active": true},
        {"id": 300037, "towerName": "A2", "active": true},
        {"id": 300038, "towerName": "A3", "active": true},
        {"id": 300039, "towerName": "A4", "active": true},
        {"id": 300040, "towerName": "B1", "active": true},
        {"id": 300041, "towerName": "B2", "active": true},
        {"id": 300042, "towerName": "B3", "active": true},
        {"id": 300043, "towerName": "C1", "active": true},
        {"id": 300044, "towerName": "C2", "active": true},
        {"id": 300045, "towerName": "C3", "active": true},
        {"id": 300046, "towerName": "C4", "active": true},
        {"id": 300047, "towerName": "C5", "active": true},
        {"id": 300048, "towerName": "F4", "active": true},
        {"id": 300049, "towerName": "F5", "active": true},
        {"id": 300050, "towerName": "F6", "active": true}
      ]
    },
    {
      "id": 200006,
      "cityCode": "100001",
      "active": true,
      "projectName": "Nirala Aspire",
      "towers": [
        {"id": 300051, "towerName": "A1", "active": true},
        {"id": 300052, "towerName": "A2", "active": true},
        {"id": 300053, "towerName": "A3", "active": true},
        {"id": 300054, "towerName": "A4", "active": true},
        {"id": 300055, "towerName": "A5", "active": true},
        {"id": 300056, "towerName": "A6", "active": true},
        {"id": 300057, "towerName": "A7", "active": true},
        {"id": 300058, "towerName": "A8", "active": true},
        {"id": 300059, "towerName": "D1", "active": true},
        {"id": 300060, "towerName": "D2", "active": true},
        {"id": 300061, "towerName": "D3", "active": true},
        {"id": 300062, "towerName": "D4", "active": true},
        {"id": 300063, "towerName": "D5", "active": true}
      ]
    },
    {
      "id": 200007,
      "cityCode": "100001",
      "active": true,
      "projectName": "Ajnara Homes",
      "towers": [
        {"id": 300064, "towerName": "A", "active": true},
        {"id": 300065, "towerName": "B", "active": true},
        {"id": 300066, "towerName": "B1", "active": true},
        {"id": 300067, "towerName": "C", "active": true},
        {"id": 300068, "towerName": "D", "active": true},
        {"id": 300069, "towerName": "E", "active": true},
        {"id": 300070, "towerName": "F", "active": true},
        {"id": 300071, "towerName": "G", "active": true},
        {"id": 300072, "towerName": "I", "active": true},
        {"id": 300073, "towerName": "J", "active": true},
        {"id": 300074, "towerName": "K", "active": true},
        {"id": 300075, "towerName": "L", "active": true},
        {"id": 300076, "towerName": "M", "active": true},
        {"id": 300077, "towerName": "N", "active": true},
        {"id": 300078, "towerName": "O", "active": true}
      ]
    },
    {
      "id": 200008,
      "cityCode": "100001",
      "active": true,
      "projectName": "Galaxy Vega",
      "towers": [
        {"id": 300079, "towerName": "A", "active": true},
        {"id": 300080, "towerName": "B", "active": true},
        {"id": 300081, "towerName": "C", "active": true},
        {"id": 300082, "towerName": "D", "active": true},
        {"id": 300083, "towerName": "E", "active": true},
        {"id": 300084, "towerName": "F", "active": true},
        {"id": 300085, "towerName": "G", "active": true}
      ]
    },
    {
      "id": 200009,
      "cityCode": "100001",
      "active": true,
      "projectName": "Galaxy North Avenue - 2",
      "towers": [
        {"id": 300086, "towerName": "A", "active": true},
        {"id": 300087, "towerName": "B", "active": true},
        {"id": 300088, "towerName": "D", "active": true},
        {"id": 300089, "towerName": "E", "active": true},
        {"id": 300090, "towerName": "F", "active": true},
        {"id": 300091, "towerName": "G", "active": true},
        {"id": 300092, "towerName": "H", "active": true},
        {"id": 300093, "towerName": "I", "active": true},
        {"id": 300094, "towerName": "J", "active": true}
      ]
    },
    {
      "id": 200010,
      "cityCode": "100001",
      "active": true,
      "projectName": "Supertech Eco Village 2",
      "towers": [
        {"id": 300095, "towerName": "B-1", "active": true},
        {"id": 300096, "towerName": "B-2", "active": true},
        {"id": 300097, "towerName": "B-3", "active": true},
        {"id": 300098, "towerName": "B-4", "active": true},
        {"id": 300099, "towerName": "B-5", "active": true},
        {"id": 300100, "towerName": "B-6", "active": true},
        {"id": 300101, "towerName": "B-7", "active": true},
        {"id": 300102, "towerName": "B-8", "active": true},
        {"id": 300103, "towerName": "B-9", "active": true},
        {"id": 300104, "towerName": "B-10", "active": true},
        {"id": 300105, "towerName": "B-11", "active": true},
        {"id": 300106, "towerName": "B-12", "active": true},
        {"id": 300107, "towerName": "B-12A", "active": true},
        {"id": 300108, "towerName": "B-14", "active": true},
        {"id": 300109, "towerName": "B-15", "active": true},
        {"id": 300110, "towerName": "B-16", "active": true},
        {"id": 300111, "towerName": "C-1", "active": true},
        {"id": 300112, "towerName": "C-2", "active": true},
        {"id": 300113, "towerName": "C-3", "active": true},
        {"id": 300114, "towerName": "C-4", "active": true},
        {"id": 300115, "towerName": "C-5", "active": true},
        {"id": 300116, "towerName": "C-6", "active": true},
        {"id": 300117, "towerName": "C-7", "active": true},
        {"id": 300118, "towerName": "C-8", "active": true},
        {"id": 300119, "towerName": "C-9", "active": true},
        {"id": 300120, "towerName": "C-10", "active": true},
        {"id": 300121, "towerName": "C-11", "active": true},
        {"id": 300122, "towerName": "D-1", "active": true},
        {"id": 300123, "towerName": "D-2", "active": true},
        {"id": 300124, "towerName": "D-3", "active": true},
        {"id": 300125, "towerName": "E-1", "active": true},
        {"id": 300126, "towerName": "F-3", "active": true},
        {"id": 300127, "towerName": "G-1", "active": true},
        {"id": 300128, "towerName": "G-2", "active": true}
      ]
    },
    {
      "id": 200011,
      "cityCode": "100001",
      "active": true,
      "projectName": "Ajnara Le Garden",
      "towers": [
        {"id": 300129, "towerName": "A", "active": true},
        {"id": 300130, "towerName": "B", "active": true},
        {"id": 300131, "towerName": "C", "active": true}
      ]
    },
    {
      "id": 200012,
      "cityCode": "0",
      "active": true,
      "projectName": "Paramount Golfforeste",
      "towers": [
        {"id": 300132, "towerName": "A type", "active": true},
        {"id": 300133, "towerName": "B type", "active": true},
        {"id": 300134, "towerName": "C type", "active": true},
        {"id": 300135, "towerName": "D type", "active": true},
        {"id": 300136, "towerName": "F type", "active": true}
      ]
    },
    {
      "id": 200013,
      "cityCode": "100001",
      "active": true,
      "projectName": "Arihant Arden",
      "towers": [
        {"id": 300137, "towerName": "A", "active": true},
        {"id": 300138, "towerName": "B", "active": true},
        {"id": 300139, "towerName": "C", "active": true},
        {"id": 300140, "towerName": "D", "active": true},
        {"id": 300141, "towerName": "E", "active": true},
        {"id": 300142, "towerName": "F", "active": true},
        {"id": 300143, "towerName": "G", "active": true},
        {"id": 300144, "towerName": "H", "active": true},
        {"id": 300145, "towerName": "I", "active": true},
        {"id": 300146, "towerName": "J", "active": true},
        {"id": 300147, "towerName": "K", "active": true},
        {"id": 300148, "towerName": "L", "active": true},
        {"id": 300149, "towerName": "M", "active": true},
        {"id": 300150, "towerName": "N", "active": true}
      ]
    },
    {
      "id": 200014,
      "cityCode": "100003",
      "active": true,
      "projectName": "Pan Oasis",
      "towers": [
        {"id": 300151, "towerName": "A", "active": true},
        {"id": 300152, "towerName": "B", "active": true},
        {"id": 300153, "towerName": "C", "active": true},
        {"id": 300154, "towerName": "D", "active": true},
        {"id": 300155, "towerName": "E", "active": true},
        {"id": 300156, "towerName": "F", "active": true},
        {"id": 300157, "towerName": "G", "active": true},
        {"id": 300158, "towerName": "H", "active": true},
        {"id": 300159, "towerName": "I", "active": true},
        {"id": 300160, "towerName": "J", "active": true},
        {"id": 300161, "towerName": "K", "active": true},
        {"id": 300162, "towerName": "L", "active": true},
        {"id": 300163, "towerName": "M", "active": true},
        {"id": 300164, "towerName": "N", "active": true},
        {"id": 300165, "towerName": "O", "active": true},
        {"id": 300166, "towerName": "P", "active": true},
        {"id": 300167, "towerName": "Q", "active": true},
        {"id": 300168, "towerName": "R", "active": true},
        {"id": 300169, "towerName": "S", "active": true}
      ]
    },
    {
      "id": 200015,
      "cityCode": "100001",
      "active": true,
      "projectName": "Panchsheel Greens 2",
      "towers": [
        {"id": 300170, "towerName": "A1", "active": true},
        {"id": 300171, "towerName": "A2", "active": true},
        {"id": 300172, "towerName": "A3", "active": true},
        {"id": 300173, "towerName": "A4", "active": true},
        {"id": 300174, "towerName": "A5", "active": true},
        {"id": 300175, "towerName": "A6", "active": true},
        {"id": 300176, "towerName": "A7", "active": true},
        {"id": 300177, "towerName": "B1", "active": true},
        {"id": 300178, "towerName": "B2", "active": true},
        {"id": 300179, "towerName": "B3", "active": true},
        {"id": 300180, "towerName": "B4", "active": true},
        {"id": 300181, "towerName": "B5", "active": true},
        {"id": 300182, "towerName": "B6", "active": true},
        {"id": 300183, "towerName": "B7", "active": true}
      ]
    },
    {
      "id": 200016,
      "cityCode": "100001",
      "active": true,
      "projectName": "Supertech Eco Village 3",
      "towers": [
        {"id": 300184, "towerName": "A-1", "active": true},
        {"id": 300185, "towerName": "A-2", "active": true},
        {"id": 300186, "towerName": "A-10", "active": true},
        {"id": 300187, "towerName": "B-2", "active": true},
        {"id": 300188, "towerName": "B-24", "active": true},
        {"id": 300189, "towerName": "C-1", "active": true}
      ]
    },
    {
      "id": 200017,
      "cityCode": "100001",
      "active": true,
      "projectName": "Oxford Square",
      "towers": [
        { "id": 300190 , "towerName": "Block B - 01", "active": true },
        { "id": 300191 , "towerName": "Block B - 02", "active": true },
        { "id": 300192 , "towerName": "Block B - 03", "active": true },
        { "id": 300193 , "towerName": "Block B - 04", "active": true },
        { "id": 300194 , "towerName": "Block B - 05", "active": true },
        { "id": 300195 , "towerName": "Block B - 06", "active": true },
        { "id": 300196 , "towerName": "Block B - 07", "active": true },
        { "id": 300197 , "towerName": "Block B - 08", "active": true },
        { "id": 300198 , "towerName": "Block B - 09", "active": true },
        { "id": 300199 , "towerName": "Block B - 10", "active": true },
        { "id": 300200 , "towerName": "Block B - 11", "active": true },
        { "id": 300201 , "towerName": "Block B - 12", "active": true },
        { "id": 300202 , "towerName": "Block B - 12A", "active": true },
        { "id": 300203 , "towerName": "Block B - 14", "active": true },
        { "id": 300204 , "towerName": "Block B - 15", "active": true },
        { "id": 300205 , "towerName": "Block B - 16", "active": true },
        { "id": 300206 , "towerName": "Block B - 17", "active": true },
        { "id": 300207 , "towerName": "Block B - 18", "active": true },
        { "id": 300208 , "towerName": "Block B - 19", "active": true },
        { "id": 300209 , "towerName": "Block B - 20", "active": true },
        { "id": 300210 , "towerName": "Block B - 21", "active": true },
        { "id": 300211 , "towerName": "Block B - 22", "active": true },
        { "id": 300212 , "towerName": "Block B - 23", "active": true },
        { "id": 300213 , "towerName": "Block B - 24", "active": true },
        { "id": 300214 , "towerName": "Block B - 25", "active": true },
        { "id": 300215 , "towerName": "Block B - 26", "active": true },
        { "id": 300216 , "towerName": "Block E - 01", "active": true },
        { "id": 300217 , "towerName": "Block E - 02", "active": true },
        { "id": 300218 , "towerName": "Block E - 03", "active": true },
        { "id": 300219 , "towerName": "Block E - 04", "active": true },
        { "id": 300220 , "towerName": "Block E - 05", "active": true },
        { "id": 300221 , "towerName": "Block E - 06", "active": true },
        { "id": 300222 , "towerName": "Block E - 07", "active": true },
        { "id": 300223 , "towerName": "Block E - 08", "active": true },
        { "id": 300224 , "towerName": "Block E - 09", "active": true },
        { "id": 300225 , "towerName": "Block E - 10", "active": true },
        { "id": 300226 , "towerName": "Block E - 11", "active": true },
        { "id": 300227 , "towerName": "Block E - 12", "active": true },
        { "id": 300228 , "towerName": "Block E - 12A", "active": true },
        { "id": 300229 , "towerName": "Block E - 14", "active": true },
        { "id": 300230 , "towerName": "Block E - 15", "active": true },
        { "id": 300231 , "towerName": "Block E - 16", "active": true },
        { "id": 300232 , "towerName": "Block E - 17", "active": true },
        { "id": 300233 , "towerName": "Block E - 18", "active": true },
        { "id": 300234 , "towerName": "Block E - 19", "active": true },
        { "id": 300235 , "towerName": "Block E - 20", "active": true },
        { "id": 300236 , "towerName": "Block E - 21", "active": true },
        { "id": 300237 , "towerName": "Block E - 22", "active": true },
        { "id": 300238 , "towerName": "Block E - 23", "active": true },
        { "id": 300239 , "towerName": "Block E - 24", "active": true },
        { "id": 300240 , "towerName": "Block E - 25", "active": true },
        { "id": 300241 , "towerName": "Block E - 26", "active": true },
        { "id": 300242 , "towerName": "Block F - 01", "active": true },
        { "id": 300243 , "towerName": "Block F - 02", "active": true },
        { "id": 300244 , "towerName": "Block F - 03", "active": true },
        { "id": 300245 , "towerName": "Block F - 04", "active": true },
        { "id": 300246 , "towerName": "Block F - 05", "active": true },
        { "id": 300247 , "towerName": "Block F - 06", "active": true },
        { "id": 300248 , "towerName": "Block F - 07", "active": true },
        { "id": 300249 , "towerName": "Block F - 08", "active": true },
        { "id": 300250 , "towerName": "Block F - 09", "active": true },
        { "id": 300251 , "towerName": "Block F - 10", "active": true },
        { "id": 300252 , "towerName": "Block F - 11", "active": true },
        { "id": 300253 , "towerName": "Block F - 12", "active": true },
        { "id": 300254 , "towerName": "Block F - 12A", "active": true },
        { "id": 300255 , "towerName": "Block F - 14", "active": true },
        { "id": 300256 , "towerName": "Block F - 15", "active": true },
        { "id": 300257 , "towerName": "Block F - 16", "active": true },
        { "id": 300258 , "towerName": "Block F - 17", "active": true },
        { "id": 300259 , "towerName": "Block F - 18", "active": true },
        { "id": 300260 , "towerName": "Block F - 19", "active": true },
        { "id": 300261 , "towerName": "Block F - 20", "active": true },
        { "id": 300262 , "towerName": "Block F - 21", "active": true },
        { "id": 300263 , "towerName": "Block F - 22", "active": true },
        { "id": 300264 , "towerName": "Block F - 23", "active": true },
        { "id": 300265 , "towerName": "Block F - 24", "active": true },
        { "id": 300266 , "towerName": "Block F - 25", "active": true },
        { "id": 300267 , "towerName": "Block F - 26", "active": true },
        { "id": 300268 , "towerName": "Block G - 01", "active": true },
        { "id": 300269 , "towerName": "Block G - 02", "active": true },
        { "id": 300270 , "towerName": "Block G - 03", "active": true },
        { "id": 300271 , "towerName": "Block G - 04", "active": true },
        { "id": 300272 , "towerName": "Block G - 05", "active": true },
        { "id": 300273 , "towerName": "Block G - 06", "active": true },
        { "id": 300274 , "towerName": "Block G - 07", "active": true },
        { "id": 300275 , "towerName": "Block G - 08", "active": true }
      ]
    },
    {
      "id": 200018,
      "cityCode": "100001",
      "active": true,
      "projectName": "Cherry County",
      "towers": [
        {"id": 300276, "towerName": "A-1", "active": true},
        {"id": 300277, "towerName": "A-2", "active": true},
        {"id": 300278, "towerName": "A-3", "active": true},
        {"id": 300279, "towerName": "A-4", "active": true},
        {"id": 300280, "towerName": "A-5", "active": true},
        {"id": 300281, "towerName": "B-1", "active": true},
        {"id": 300282, "towerName": "B-2", "active": true},
        {"id": 300283, "towerName": "B-3", "active": true},
        {"id": 300284, "towerName": "B-4", "active": true},
        {"id": 300285, "towerName": "B-5", "active": true},
        {"id": 300286, "towerName": "B-6", "active": true},
        {"id": 300287, "towerName": "C-1", "active": true},
        {"id": 300288, "towerName": "C-2", "active": true}
      ]
    },
    {
      "id": 200019,
      "cityCode": "100001",
      "active": true,
      "projectName": "Ace Aspire",
      "towers": [
        {"id": 300289, "towerName": "A", "active": true},
        {"id": 300290, "towerName": "B", "active": true},
        {"id": 300291, "towerName": "C", "active": true},
        {"id": 300292, "towerName": "D1", "active": true},
        {"id": 300293, "towerName": "D2", "active": true},
        {"id": 300294, "towerName": "E", "active": true},
        {"id": 300296, "towerName": "F1", "active": true},
        {"id": 300297, "towerName": "F2", "active": true},
        {"id": 300295, "towerName": "G", "active": true},
        {"id": 300298, "towerName": "H", "active": true},
        {"id": 300299, "towerName": "I", "active": true}
      ]
    },
    {
      "id": 200020,
      "cityCode": "100001",
      "active": true,
      "projectName": "Stellar Jeevan",
      "towers": [
        {"id": 300300, "towerName": "A", "active": true},
        {"id": 300301, "towerName": "B", "active": true},
        {"id": 300302, "towerName": "C", "active": true},
        {"id": 300303, "towerName": "D", "active": true},
        {"id": 300304, "towerName": "E", "active": true},
        {"id": 300305, "towerName": "F", "active": true},
        {"id": 300306, "towerName": "G", "active": true},
        {"id": 300307, "towerName": "H", "active": true},
        {"id": 300308, "towerName": "J", "active": true},
        {"id": 300309, "towerName": "K", "active": true},
        {"id": 300310, "towerName": "L", "active": true},
        {"id": 300311, "towerName": "M", "active": true},
        {"id": 300312, "towerName": "N", "active": true},
        {"id": 300313, "towerName": "P", "active": true},
        {"id": 300314, "towerName": "Q", "active": true},
        {"id": 300315, "towerName": "R", "active": true},
        {"id": 300316, "towerName": "S", "active": true},
        {"id": 300317, "towerName": "T", "active": true}
      ]
    },
    {
      "id": 200021,
      "cityCode": "100001",
      "active": true,
      "projectName": "Gaur City - 1st Avenue",
      "towers": [
        {"id": 300318, "towerName": "A", "active": true},
        {"id": 300319, "towerName": "B", "active": true},
        {"id": 300320, "towerName": "C", "active": true},
        {"id": 300321, "towerName": "D", "active": true},
        {"id": 300322, "towerName": "E", "active": true},
        {"id": 300323, "towerName": "F", "active": true},
        {"id": 300324, "towerName": "G", "active": true},
        {"id": 300325, "towerName": "H", "active": true},
        {"id": 300326, "towerName": "I", "active": true},
        {"id": 300327, "towerName": "J", "active": true},
        {"id": 300328, "towerName": "K", "active": true},
        {"id": 300329, "towerName": "L", "active": true}
      ]
    },
    {
      "id": 200022,
      "cityCode": "10000",
      "active": true,
      "projectName": "Gaur City - 14th Avenue",
      "towers": [
        {"id": 300330, "towerName": "A", "active": true},
        {"id": 300331, "towerName": "B", "active": true},
        {"id": 300332, "towerName": "C", "active": true},
        {"id": 300333, "towerName": "D", "active": true},
        {"id": 300334, "towerName": "E", "active": true},
        {"id": 300335, "towerName": "F", "active": true},
        {"id": 300336, "towerName": "G", "active": true},
        {"id": 300337, "towerName": "H", "active": true},
        {"id": 300338, "towerName": "I", "active": true},
        {"id": 300339, "towerName": "J", "active": true},
        {"id": 300340, "towerName": "K", "active": true},
        {"id": 300341, "towerName": "L", "active": true},
        {"id": 300342, "towerName": "M", "active": true},
        {"id": 300343, "towerName": "N", "active": true},
        {"id": 300344, "towerName": "O", "active": true},
        {"id": 300345, "towerName": "P", "active": true},
        {"id": 300346, "towerName": "Q", "active": true},
        {"id": 300347, "towerName": "R", "active": true},
        {"id": 300348, "towerName": "U", "active": true},
        {"id": 300349, "towerName": "V", "active": true}
      ]
    },
    {
      "id": 200023,
      "cityCode": "100001",
      "active": true,
      "projectName": "Ace City",
      "towers": [
        {"id": 300350, "towerName": "A", "active": true},
        {"id": 300351, "towerName": "B", "active": true},
        {"id": 300352, "towerName": "C", "active": true},
        {"id": 300353, "towerName": "D", "active": true},
        {"id": 300354, "towerName": "E", "active": true},
        {"id": 300355, "towerName": "F", "active": true},
        {"id": 300356, "towerName": "G", "active": true},
        {"id": 300357, "towerName": "H", "active": true},
        {"id": 300358, "towerName": "I", "active": true},
        {"id": 300359, "towerName": "J", "active": true},
        {"id": 300360, "towerName": "K", "active": true}
      ]
    },
    {
      "id": 200024,
      "cityCode": "100003",
      "active": true,
      "projectName": "Homes 121",
      "towers": [
        {"id": 300361, "towerName": "A", "active": true},
        {"id": 300362, "towerName": "B", "active": true},
        {"id": 300363, "towerName": "C", "active": true},
        {"id": 300364, "towerName": "D", "active": true},
        {"id": 300365, "towerName": "E", "active": true},
        {"id": 300366, "towerName": "F", "active": true},
        {"id": 300367, "towerName": "G", "active": true},
        {"id": 300368, "towerName": "H", "active": true},
        {"id": 300369, "towerName": "J", "active": true},
        {"id": 300370, "towerName": "K", "active": true},
        {"id": 300371, "towerName": "L", "active": true},
        {"id": 300372, "towerName": "M", "active": true},
        {"id": 300373, "towerName": "N", "active": true},
        {"id": 300374, "towerName": "O", "active": true},
        {"id": 300375, "towerName": "P", "active": true},
        {"id": 300376, "towerName": "Q", "active": true},
        {"id": 300377, "towerName": "R", "active": true},
        {"id": 300378, "towerName": "S", "active": true},
        {"id": 300379, "towerName": "T", "active": true},
        {"id": 300380, "towerName": "U", "active": true},
        {"id": 300381, "towerName": "V", "active": true},
        {"id": 300382, "towerName": "W", "active": true}

      ]
    },
    {
      "id": 200025,
      "cityCode": "100001",
      "active": true,
      "projectName": "French Connection",
      "towers": [
        {"id": 300383, "towerName": "A", "active": true},
        {"id": 300384, "towerName": "B", "active": true},
        {"id": 300385, "towerName": "C", "active": true},
        {"id": 300676, "towerName": "D", "active": true},
        {"id": 300677, "towerName": "E", "active": true}
      ]
    },
    {
      "id": 200026,
      "cityCode": "100003",
      "active": true,
      "projectName": "Cleo County",
      "towers": [
        {"id": 300386, "towerName": "A1", "active": true},
        {"id": 300387, "towerName": "A2", "active": true},
        {"id": 300425, "towerName": "A3", "active": true},
        {"id": 300593, "towerName": "A4", "active": true},
        {"id": 300594, "towerName": "A5", "active": true},
        {"id": 300595, "towerName": "A6", "active": true},
        {"id": 300596, "towerName": "B1", "active": true},
        {"id": 300597, "towerName": "B2", "active": true},
        {"id": 300598, "towerName": "B3", "active": true},
        {"id": 300599, "towerName": "B4", "active": true},
        {"id": 300600, "towerName": "B5", "active": true},
        {"id": 300601, "towerName": "B6", "active": true},
        {"id": 300388, "towerName": "C1", "active": true},
        {"id": 300389, "towerName": "C2", "active": true},
        {"id": 300390, "towerName": "C3", "active": true},
        {"id": 300391, "towerName": "D1", "active": true},
        {"id": 300392, "towerName": "D2", "active": true}
      ]
    },
    {
      "id": 200027,
      "cityCode": "100001",
      "active": true,
      "projectName": "Hawelia Valencia Homes",
      "towers": [
        {"id": 300393, "towerName": "C", "active": true},
        {"id": 300394, "towerName": "D", "active": true},
        {"id": 300395, "towerName": "E", "active": true},
        {"id": 300396, "towerName": "F", "active": true},
        {"id": 300397, "towerName": "G", "active": true},
        {"id": 300398, "towerName": "H", "active": true},
        {"id": 300399, "towerName": "I", "active": true},
        {"id": 300400, "towerName": "J", "active": true},
        {"id": 300401, "towerName": "K", "active": true}
      ]
    },
    {
      "id": 200028,
      "cityCode": "100002",
      "active": true,
      "projectName": "Proview Laboni",
      "towers": [
        {"id": 300402, "towerName": "A", "active": true},
        {"id": 300403, "towerName": "C", "active": true},
        {"id": 300404, "towerName": "E", "active": true},
        {"id": 300405, "towerName": "I", "active": true}
      ]
    },
    {
      "id": 200029,
      "cityCode": "100001",
      "active": true,
      "projectName": "La Residentia",
      "towers": [
        {"id": 300406, "towerName": "1", "active": true},
        {"id": 300407, "towerName": "2", "active": true},
        {"id": 300408, "towerName": "3", "active": true},
        {"id": 300409, "towerName": "4", "active": true},
        {"id": 300410, "towerName": "5", "active": true},
        {"id": 300411, "towerName": "6", "active": true},
        {"id": 300412, "towerName": "7", "active": true},
        {"id": 300413, "towerName": "8", "active": true},
        {"id": 300414, "towerName": "9", "active": true},
        {"id": 300415, "towerName": "10", "active": true},
        {"id": 300416, "towerName": "11", "active": true},
        {"id": 300417, "towerName": "12", "active": true},
        {"id": 300418, "towerName": "13", "active": true},
        {"id": 300419, "towerName": "14", "active": true},
        {"id": 300420, "towerName": "15", "active": true},
        {"id": 300421, "towerName": "16", "active": true},
        {"id": 300422, "towerName": "17", "active": true},
        {"id": 300423, "towerName": "18", "active": true},
        {"id": 300424, "towerName": "19", "active": true}
      ]
    },
    {
      "id": 200030,
      "cityCode": "100001",
      "active": true,
      "projectName": "Nirala Estate",
      "towers": [
        {"id": 300426, "towerName": "1", "active": true},
        {"id": 300427, "towerName": "2", "active": true},
        {"id": 300428, "towerName": "3", "active": true},
        {"id": 300429, "towerName": "4", "active": true},
        {"id": 300430, "towerName": "5", "active": true},
        {"id": 300431, "towerName": "6", "active": true},
        {"id": 300432, "towerName": "7", "active": true},
        {"id": 300433, "towerName": "8", "active": true},
        {"id": 300434, "towerName": "9", "active": true},
        {"id": 300435, "towerName": "10", "active": true},
        {"id": 300436, "towerName": "11", "active": true},
        {"id": 300437, "towerName": "12", "active": true},
        {"id": 300438, "towerName": "14", "active": true},
        {"id": 300439, "towerName": "15", "active": true},
        {"id": 300440, "towerName": "16", "active": true},
        {"id": 300441, "towerName": "17", "active": true},
        {"id": 300442, "towerName": "18", "active": true}
      ]
    },
    {
      "id": 200031,
      "cityCode": "100001",
      "active": true,
      "projectName": "Royal Nest",
      "towers": [
        {"id": 300443, "towerName": "N1", "active": true},
        {"id": 300444, "towerName": "N2", "active": true},
        {"id": 300445, "towerName": "N3", "active": true},
        {"id": 300446, "towerName": "N4", "active": true},
        {"id": 300447, "towerName": "N5", "active": true},
        {"id": 300448, "towerName": "N6", "active": true},
        {"id": 300449, "towerName": "N7", "active": true},
        {"id": 300450, "towerName": "N8", "active": true}
      ]
    },
    {
      "id": 200032,
      "cityCode": "100003",
      "active": true,
      "projectName": "Supertech 34 Pavilion",
      "towers": [
        {"id": 300451, "towerName": "Aristo", "active": true},
        {"id": 300452, "towerName": "Amber", "active": true},
        {"id": 300453, "towerName": "Azure", "active": true}
      ]
    },
    {
      "id": 200033,
      "cityCode": "100001",
      "active": true,
      "projectName": "Mahagun MyWoods",
      "towers": [
        {"id": 300607, "towerName": "Aspen", "active": true},
        {"id": 300454, "towerName": "Camphor", "active": true},
        {"id": 300455, "towerName": "Durian", "active": true},
        {"id": 300456, "towerName": "Ebony", "active": true},
        {"id": 300457, "towerName": "Hazel wood", "active": true},
        {"id": 300458, "towerName": "Magnolia", "active": true},
        {"id": 300459, "towerName": "Mahogany", "active": true},
        {"id": 300460, "towerName": "Oak wood", "active": true},
        {"id": 300461, "towerName": "Pine", "active": true},
        {"id": 300462, "towerName": "Rosewood", "active": true},
        {"id": 300463, "towerName": "Sal wood", "active": true},
        {"id": 300464, "towerName": "Sandalwood", "active": true},
        {"id": 300465, "towerName": "Teak wood", "active": true},
        {"id": 300466, "towerName": "Walnut", "active": true}
      ]
    },
    {
      "id": 200034,
      "cityCode": "100003",
      "active": true,
      "projectName": "Prateek Laurel",
      "towers": [
        {"id": 300467, "towerName": "A", "active": true},
        {"id": 300468, "towerName": "B", "active": true},
        {"id": 300469, "towerName": "C", "active": true},
        {"id": 300470, "towerName": "D", "active": true},
        {"id": 300471, "towerName": "E", "active": true},
        {"id": 300472, "towerName": "F", "active": true},
        {"id": 300473, "towerName": "G", "active": true},
        {"id": 300474, "towerName": "H", "active": true},
        {"id": 300475, "towerName": "I", "active": true},
        {"id": 300476, "towerName": "J", "active": true},
        {"id": 300477, "towerName": "K", "active": true},
        {"id": 300478, "towerName": "L", "active": true},
        {"id": 300479, "towerName": "M", "active": true},
        {"id": 300480, "towerName": "N", "active": true}
      ]
    },
    {
      "id": 200035,
      "cityCode": "100003",
      "active": true,
      "projectName": "RG Residency",
      "towers": [
        {"id": 300481, "towerName": "A", "active": true},
        {"id": 300482, "towerName": "B", "active": true},
        {"id": 300483, "towerName": "C", "active": true},
        {"id": 300484, "towerName": "D", "active": true},
        {"id": 300485, "towerName": "E", "active": true},
        {"id": 300486, "towerName": "F", "active": true},
        {"id": 300487, "towerName": "G", "active": true},
        {"id": 300488, "towerName": "H", "active": true},
        {"id": 300489, "towerName": "J", "active": true},
        {"id": 300490, "towerName": "K", "active": true},
        {"id": 300491, "towerName": "L", "active": true},
        {"id": 300492, "towerName": "M", "active": true}
      ]
    },
    {
      "id": 200036,
      "cityCode": "100001",
      "active": true,
      "projectName": "Palm Olympia",
      "towers": [
        {"id": 300493, "towerName": "1", "active": true},
        {"id": 300494, "towerName": "2", "active": true},
        {"id": 300495, "towerName": "3", "active": true},
        {"id": 300496, "towerName": "4", "active": true},
        {"id": 300497, "towerName": "5", "active": true},
        {"id": 300498, "towerName": "6", "active": true},
        {"id": 300499, "towerName": "7", "active": true},
        {"id": 300500, "towerName": "8", "active": true},
        {"id": 300501, "towerName": "9", "active": true},
        {"id": 300502, "towerName": "10", "active": true},
        {"id": 300503, "towerName": "11", "active": true},
        {"id": 300504, "towerName": "12", "active": true}
      ]
    },
    {
      "id": 200037,
      "cityCode": "100001",
      "active": true,
      "projectName": "Imperia H2O Residency",
      "towers": [
        {"id": 300505, "towerName": "Block A", "active": true},
        {"id": 300506, "towerName": "Block B", "active": true},
        {"id": 300507, "towerName": "Block C", "active": true},
        {"id": 300508, "towerName": "Block D", "active": true},
        {"id": 300509, "towerName": "Block E", "active": true}
      ]
    },
    {
      "id": 200038,
      "cityCode": "100001",
      "active": true,
      "projectName": "Exotica Dreamville",
      "towers": [
        {"id": 300510, "towerName": "1", "active": true},
        {"id": 300511, "towerName": "2", "active": true},
        {"id": 300512, "towerName": "3", "active": true},
        {"id": 300513, "towerName": "4", "active": true},
        {"id": 300514, "towerName": "5", "active": true},
        {"id": 300515, "towerName": "6", "active": true},
        {"id": 300516, "towerName": "7", "active": true},
        {"id": 300517, "towerName": "8", "active": true},
        {"id": 300518, "towerName": "9", "active": true},
        {"id": 300519, "towerName": "10", "active": true},
        {"id": 300520, "towerName": "11", "active": true},
        {"id": 300521, "towerName": "12", "active": true},
        {"id": 300522, "towerName": "13", "active": true},
        {"id": 300523, "towerName": "14", "active": true},
        {"id": 300524, "towerName": "15", "active": true}
      ]
    },
    {
      "id": 200039,
      "cityCode": "100001",
      "active": true,
      "projectName": "Eros Sampoornam",
      "towers": [
        {"id": 300525, "towerName": "N1", "active": true},
        {"id": 300526, "towerName": "N2", "active": true},
        {"id": 300527, "towerName": "N3", "active": true},
        {"id": 300528, "towerName": "N4", "active": true},
        {"id": 300529, "towerName": "G1", "active": true},
        {"id": 300530, "towerName": "G8", "active": true},
        {"id": 300531, "towerName": "Y1", "active": true},
        {"id": 300532, "towerName": "Y2", "active": true},
        {"id": 300533, "towerName": "Y3", "active": true},
        {"id": 300534, "towerName": "Y4", "active": true},
        {"id": 300535, "towerName": "Y5", "active": true},
        {"id": 300536, "towerName": "Y6", "active": true},
        {"id": 300537, "towerName": "Y7", "active": true},
        {"id": 300538, "towerName": "Y8", "active": true},
        {"id": 300539, "towerName": "H1", "active": true},
        {"id": 300540, "towerName": "H4", "active": true},
        {"id": 300541, "towerName": "A1", "active": true},
        {"id": 300542, "towerName": "A4", "active": true}
      ]
    },
    {
      "id": 200040,
      "cityCode": "100001",
      "active": true,
      "projectName": "Supertech Eco Village 1",
      "towers": [
        {"id": 300589, "towerName": "A-1", "active": true},
        {"id": 300590, "towerName": "A-2", "active": true},
        {"id": 300591, "towerName": "A-3", "active": true},
        {"id": 300592, "towerName": "A-4", "active": true},
        {"id": 300543, "towerName": "B-1", "active": true},
        {"id": 300544, "towerName": "B-2", "active": true},
        {"id": 300545, "towerName": "B-3", "active": true},
        {"id": 300546, "towerName": "B-4", "active": true},
        {"id": 300547, "towerName": "B-5", "active": true},
        {"id": 300548, "towerName": "B-6", "active": true},
        {"id": 300549, "towerName": "B-8", "active": true},
        {"id": 300550, "towerName": "B-9", "active": true},
        {"id": 300551, "towerName": "B-10", "active": true},
        {"id": 300552, "towerName": "B-11", "active": true},
        {"id": 300553, "towerName": "B-12", "active": true},
        {"id": 300554, "towerName": "B-12A", "active": true},
        {"id": 300555, "towerName": "B-14", "active": true},
        {"id": 300556, "towerName": "B-15", "active": true},
        {"id": 300557, "towerName": "B-16", "active": true},
        {"id": 300558, "towerName": "B-17", "active": true},
        {"id": 300559, "towerName": "B-18", "active": true},
        {"id": 300560, "towerName": "C-2", "active": true},
        {"id": 300561, "towerName": "C-3", "active": true},
        {"id": 300562, "towerName": "C-4", "active": true},
        {"id": 300563, "towerName": "C-5", "active": true},
        {"id": 300564, "towerName": "C-6", "active": true},
        {"id": 300565, "towerName": "D-3", "active": true},
        {"id": 300566, "towerName": "D-4", "active": true},
        {"id": 300567, "towerName": "D-5", "active": true},
        {"id": 300568, "towerName": "E-1", "active": true},
        {"id": 300569, "towerName": "E-4", "active": true},
        {"id": 300570, "towerName": "E-5", "active": true},
        {"id": 300571, "towerName": "E-6", "active": true},
        {"id": 300572, "towerName": "E-7", "active": true},
        {"id": 300573, "towerName": "F-1", "active": true},
        {"id": 300574, "towerName": "F-5", "active": true},
        {"id": 300575, "towerName": "F-7", "active": true},
        {"id": 300576, "towerName": "G-2", "active": true},
        {"id": 300577, "towerName": "G-5", "active": true},
        {"id": 300578, "towerName": "H-1", "active": true},
        {"id": 300579, "towerName": "H-2", "active": true},
        {"id": 300580, "towerName": "J", "active": true},
        {"id": 300581, "towerName": "K-1", "active": true},
        {"id": 300582, "towerName": "K-2", "active": true},
        {"id": 300583, "towerName": "N-1", "active": true},
        {"id": 300584, "towerName": "N-2", "active": true},
        {"id": 300585, "towerName": "N-3", "active": true},
        {"id": 300586, "towerName": "S-1", "active": true},
        {"id": 300587, "towerName": "S-2", "active": true},
        {"id": 300588, "towerName": "S-3", "active": true}
      ]
    },
    {
      "id": 200041,
      "cityCode": "100003",
      "active": true,
      "projectName": "Sunshine Helios",
      "towers": [
        {"id": 300602, "towerName": "A", "active": true},
        {"id": 300603, "towerName": "B", "active": true},
        {"id": 300604, "towerName": "C", "active": true},
        {"id": 300605, "towerName": "D", "active": true},
        {"id": 300606, "towerName": "E", "active": true}
      ]
    },
    {
      "id": 200042,
      "cityCode": "100001",
      "active": true,
      "projectName": "VictoryOne Central",
      "towers": [
        {"id": 300608, "towerName": "D", "active": true},
        {"id": 300609, "towerName": "E", "active": true},
        {"id": 300610, "towerName": "F", "active": true},
        {"id": 300611, "towerName": "G", "active": true}
      ]
    },
    {
      "id": 200043,
      "cityCode": "100003",
      "active": true,
      "projectName": "Supertech Cape Town",
      "towers": [
        {"id": 300612, "towerName": "Cape Berry 1", "active": true},
        {"id": 300613, "towerName": "Cape Berry 2", "active": true},
        {"id": 300614, "towerName": "Cape Berry 3", "active": true},
        {"id": 300615, "towerName": "Cape Berry 5", "active": true},
        {"id": 300616, "towerName": "Cape Berry 6", "active": true},
        {"id": 300617, "towerName": "Cape Gold 1", "active": true},
        {"id": 300618, "towerName": "Cape Gold 2", "active": true},
        {"id": 300619, "towerName": "Cape Gold 3", "active": true},
        {"id": 300620, "towerName": "Cape Gold 4", "active": true},
        {"id": 300621, "towerName": "Cape Gold 5", "active": true},
        {"id": 300622, "towerName": "Cape Gold 6", "active": true},
        {"id": 300623, "towerName": "Cape Grande 1", "active": true},
        {"id": 300624, "towerName": "Cape Mansion 1", "active": true},
        {"id": 300625, "towerName": "Cape Mansion 2", "active": true},
        {"id": 300626, "towerName": "Cape Mansion 3", "active": true},
        {"id": 300627, "towerName": "Cape Mansion 4", "active": true},
        {"id": 300628, "towerName": "Cape Monte Carlo 1", "active": true},
        {"id": 300629, "towerName": "Cape Monte Carlo 2", "active": true},
        {"id": 300630, "towerName": "Cape Monte Carlo 3", "active": true},
        {"id": 300631, "towerName": "Cape Monte Carlo 4", "active": true},
        {"id": 300632, "towerName": "Cape Silver 1", "active": true},
        {"id": 300633, "towerName": "Cape Silver 2", "active": true},
        {"id": 300634, "towerName": "Cape Silver 3", "active": true},
        {"id": 300635, "towerName": "Cape Silver 4", "active": true},
        {"id": 300636, "towerName": "Cape Silver 5", "active": true},
        {"id": 300637, "towerName": "Cape Silver 6", "active": true},
        {"id": 300638, "towerName": "Cape Silver 7", "active": true},
        {"id": 300639, "towerName": "Cape Silver 8", "active": true},
        {"id": 300640, "towerName": "Cape Silver 9", "active": true},
        {"id": 300641, "towerName": "Cape Silver 10", "active": true},
        {"id": 300642, "towerName": "Cape Silver 11", "active": true},
        {"id": 300643, "towerName": "Cape Silver 12", "active": true},
        {"id": 300644, "towerName": "Cape Vista 1", "active": true},
        {"id": 300645, "towerName": "Cape Vista 2", "active": true},
        {"id": 300646, "towerName": "Cape Vista 3", "active": true},
        {"id": 300647, "towerName": "Cape Vista 4", "active": true},
        {"id": 300648, "towerName": "Cape Vista 5", "active": true},
        
        {"id": 300650, "towerName": "Cape Vista 7", "active": true}
        
      ]
    },
    {
      "id": 200044,
      "cityCode": "100001",
      "active": true,
      "projectName": "Saya Zion",
      "towers": [
        {"id": 300651, "towerName": "Tower A", "active": true},
        {"id": 300652, "towerName": "Tower B", "active": true},
        {"id": 300653, "towerName": "Tower C", "active": true},
        {"id": 300654, "towerName": "Tower D", "active": true},
        {"id": 300655, "towerName": "Tower E", "active": true},
        {"id": 300656, "towerName": "Tower F", "active": true},
        {"id": 300657, "towerName": "Tower G", "active": true},
        {"id": 300658, "towerName": "Tower H", "active": true},
        {"id": 300659, "towerName": "Tower I", "active": true}
      ]
    },
    {
      "id": 200045,
      "cityCode": "100003",
      "active": true,
      "projectName": "Ajnara Heritage",
      "towers": [
        {"id": 300660, "towerName": "Tower A", "active": true},
        {"id": 300661, "towerName": "Tower B", "active": true},
        {"id": 300662, "towerName": "Tower C", "active": true},
        {"id": 300663, "towerName": "Tower D", "active": true},
        {"id": 300664, "towerName": "Tower E", "active": true},
        {"id": 300665, "towerName": "Tower F", "active": true},
        {"id": 300666, "towerName": "Tower G", "active": true},
        {"id": 300667, "towerName": "Tower H", "active": true},
        {"id": 300668, "towerName": "Tower I", "active": true},
        {"id": 300669, "towerName": "Tower L", "active": true},
        {"id": 300670, "towerName": "Tower M", "active": true},
        {"id": 300671, "towerName": "Tower N", "active": true},
        {"id": 300672, "towerName": "Tower O", "active": true}
        
      ]
    },
    {
      "id": 200046,
      "cityCode": "100001",
      "active": true,
      "projectName": "Migsun Green Mansion",
      "towers": [
        {"id": 300674, "towerName": "Tower A", "active": true},
        {"id": 300673, "towerName": "Tower B", "active": true},
        {"id": 300675, "towerName": "Tower C", "active": true}
      ]
    },
    {
      "id": 200047,
      "cityCode": "100001",
      "active": true,
      "projectName": "Design Arch EHomes",
      "towers": [
        {"id": 300678, "towerName": "Tower A", "active": true},
        {"id": 300679, "towerName": "Tower B", "active": true},
        {"id": 300680, "towerName": "Tower C", "active": true},
        {"id": 300681, "towerName": "Tower D", "active": true},
        {"id": 300682, "towerName": "Tower E", "active": true}
      ]
    },
    {
      "id": 200048,
      "cityCode": "100001",
      "active": true,
      "projectName": "Shivalik Homes",
      "towers": [
        {"id": 300683, "towerName": "Tower A", "active": true},
        {"id": 300684, "towerName": "Tower B", "active": true},
        {"id": 300685, "towerName": "Tower C", "active": true},
        {"id": 300686, "towerName": "Tower D", "active": true}
      ]
    }
  ]
}